module github.com/v2fly/domain-list-community

go 1.15

require (
	github.com/golang/protobuf v1.4.3
	v2ray.com/core v4.19.1+incompatible
)

replace v2ray.com/core => github.com/v2fly/v2ray-core v0.0.0-20201114050607-7cc8b7500687
